<svg width="84" height="83" viewBox="0 0 84 83" fill="none" xmlns="http://www.w3.org/2000/svg">
<ellipse cx="41.7714" cy="41.16" rx="41.7714" ry="41.16" fill="#BFEAF5"/>
<rect x="17.7327" y="28.958" width="45.7143" height="34.2859" rx="6.66667" fill="white" stroke="#2A9DDD"/>
<rect x="30.8494" y="40.1602" width="19.51" height="11.0318" rx="5.51588" fill="#E5F3F8" stroke="#2A9DDD"/>
<path d="M50.6841 39.6987C50.6841 42.4735 48.4577 44.7146 45.7213 44.7146C42.985 44.7146 40.7585 42.4735 40.7585 39.6987C40.7585 36.924 42.985 34.6829 45.7213 34.6829C48.4577 34.6829 50.6841 36.924 50.6841 39.6987Z" fill="#E5F3F8" stroke="#2A9DDD"/>
<path d="M43.6597 29.479C43.6597 31.3834 42.132 32.9189 40.2577 32.9189C38.3834 32.9189 36.8557 31.3834 36.8557 29.479C36.8557 27.5746 38.3834 26.0391 40.2577 26.0391C42.132 26.0391 43.6597 27.5746 43.6597 29.479Z" fill="#E5F3F8" stroke="#2A9DDD"/>
<path d="M47.3619 20.6462C47.3619 22.0915 46.1903 23.2631 44.7451 23.2631C43.2998 23.2631 42.1282 22.0915 42.1282 20.6462C42.1282 19.2009 43.2998 18.0293 44.7451 18.0293C46.1903 18.0293 47.3619 19.2009 47.3619 20.6462Z" fill="#E5F3F8" stroke="#2A9DDD"/>
</svg>
